[
  {
    "type":"text",
    "params":{}
  },
  {
    "type":"text",
    "name":"name",
    "placeholder":"Введите имя",
    "size":"x",
    "icon":"user",
    "fieldname":"Имя",
    "required":true
  },
  {
    "type":"tel",
    "name":"phone",
    "icon":"tel",
    "placeholder":"Введите телефон",
    "params":{"mask":"+7(999)999-99-99"},
    "fieldname":"Телефон"
  },
  {
    "type":"email",
    "name":"email",
    "placeholder":"Ваш Email",
    "fieldname":"Email"
  },
  {
    "type":"hedden",
    "name":"service",    
    "fieldname":"Услуга"
  }
]
